<svg xmlns="http://www.w3.org/2000/svg" viewBox="0 0 712 653.51"><title>venue tour
</title><g id="Layer_2" data-name="Layer 2">
<path d="M572.2,407c18.16,4.46,35.28,11.38,49.08,24.6,17.05,16.33,18.6,38.08,4.45,57.21-10.11,13.66-23.58,23.42-38.37,31.39-32.54,17.52-67.62,27.33-103.77,33.75-49,8.71-98.37,11.66-148,7.07-47.07-4.35-93.44-12.3-137.06-31.5a199.45,199.45,0,0,1-35.07-19.37,107.21,107.21,0,0,1-24.18-23.67c-13-17.75-11.1-37.36,4.14-53.21,13.9-14.46,31.82-21.5,50.66-26.37l1.49,2.27c-3,2.07-6.32,3.89-9.11,6.26-9.55,8.11-20,15.5-28.13,24.87-11,12.7-9.79,24.53,3.39,34.83a123.32,123.32,0,0,0,29.4,16.79c33.42,13.54,68.7,20.14,104.46,21.73,47.44,2.11,95,3,142.48,2.24,41.45-.65,82.65-5.75,122.37-18.68a252.18,252.18,0,0,0,31.43-13,58.55,58.55,0,0,0,14.7-10.68c10.26-9.88,11.87-20.42,2.67-31.37-8.24-9.8-18.81-17.67-28.54-26.17-3-2.59-6.55-4.47-9.86-6.67Z"/><path d="M430.74,390.52c.84-13,2.79-28.18,11.4-41.72,20.21-31.81,64.94-32.56,83.88,0,16.9,29,16.93,60.25-.15,89.28-18.53,31.49-67.1,29.22-85.29-2.82C434.52,424.59,430.74,408.36,430.74,390.52Zm76.51,1.6c-1.76-8.27-3.15-17.46-5.77-26.29-2.38-8-8.39-13.27-17-13.4s-14.5,5.22-17.39,13c-6.59,17.73-6.6,35.83-.62,53.64,3.07,9.15,10.49,14.16,18.2,13.69,9.21-.57,15.22-6.08,17.66-14.44C504.69,410.23,505.52,401.7,507.25,392.12Z"/><path d="M372.58,328h38.18c-7,8.42-12.33,14.83-17.69,21.2-5.21,6.19-10.46,12.34-16.69,19.69,2.64.44,4.29.84,5.95,1,22.4,1.8,38.59,17.87,41.06,40.77,2.34,21.73-9.61,39.77-30.74,46.62a58.22,58.22,0,0,1-34.68.48c-26.68-7.61-40.27-29.76-33.86-57.13a72.83,72.83,0,0,1,11.16-25.32C347,358.91,360.24,343.51,372.58,328Zm1.15,105.87c11.16-.12,18.24-7.25,18.25-18.38s-8.38-19.51-19.29-19c-10.4.44-17.64,8.51-17.51,19.5S362.45,434,373.73,433.91Z"/><path d="M300.9,387c15.26,17.1,18.28,31.81,10.35,48.18-7.69,15.88-27.26,26.31-46.65,25.13-23.63-1.44-41.77-14.55-46.25-33.21l25.9-12.93c2.27,4,4,7.52,6.21,10.75a19.35,19.35,0,0,0,23.69,6.85c8.07-3.39,11.45-9.73,9.64-18.7-1.4-6.95-5.36-11.72-12.59-13.16-3.12-.62-6.29-1-10.31-1.69V381c9.54-2.84,21-3.85,20.7-17.72-.11-5.94-3.17-10.11-8.84-11.72-12.36-3.52-20.17,2.58-25.31,14.13l-22.56-11c1.23-10.43,6.88-17.19,14.59-21.88,17.35-10.57,35.39-10.92,53.11-1C309.09,341.1,318.44,365.77,300.9,387Z"/><path d="M578.31,315.33c-.1,12.8-9.69,22.12-22.61,22a22.35,22.35,0,0,1-22.09-22.78c.34-11.32,10.86-21.61,22.29-21.81C567.9,292.5,578.41,303.1,578.31,315.33ZM554,305.09l-8.39,9.09c2.29,7.75,6.14,11.54,12.12,9.76,3.14-.93,7.07-4.82,7.56-7.87C566.29,310.13,562.16,306.48,554,305.09Z"/><path d="M211.26,273.18V208.46h11.89c-3.16-5.54-6.08-10.88-9.23-16.08a92.8,92.8,0,0,0-5.69-7.86c-5.11-6.7-10.62-13-16.27-19.32-4.89-5.42-10.38-10.15-15.65-15.09-4.23-4-8.76-7.89-14-10.73-2.42-1.31-4.43-3.36-6.65-5.1.88-.58,2-1.92,3.08-1.93,3.12,0,5.11-2.58,8.1-3.07,2.58-.42,4.87-2.43,7.44-3.2A70.88,70.88,0,0,0,181.8,123a74.43,74.43,0,0,1,7.68-2.72c4-1.21,7.79-2.91,11.83-4,3.83-1.05,7.56-2.64,11.42-3.74,6.22-1.77,12.3-4,18.65-5.42,4.93-1.09,9.69-2.8,14.65-3.89,3.5-.76,7-1.58,10.53-2.48,4.94-1.28,10-2.17,15-3a48,48,0,0,0,7.19-1.57c2.34-.79,5.11-.32,7.43-1.15,2.09-.75,4.45-.08,6.06-1,2-1.13,4-.1,5.71-.83,2.34-1,4.93-.18,7-1,2.44-1,4.9-.09,7.06-.88,2.54-.93,5.12-.31,7.52-.92,3.6-.92,7.32-.17,10.74-1,3.8-.92,7.59-.13,11.24-.84,8.52-1.66,17.09-.59,25.62-.8s17,0,25.52,0c8.66,0,17.33-.07,26,0,2.51,0,5,.69,7.51.85s5.13-.53,7.38.18c2.87.9,5.66.56,8.48.81,1.9.17,3.76.67,5.65.88s3.93-.46,5.66.93c.19.15.6,0,.91,0,2.21.19,4.37-.18,6.64.79,1.93.82,4.3.19,6.57.91,2.92.93,6.28.41,9.29,1.17,4.09,1,8.37,1,12.39,2.54,1.7.65,3.72.56,5.61,1,5.52,1.25,11.13,2,16.62,3.57a79.79,79.79,0,0,0,8.92,2c4.34.69,8.39,2.31,12.65,3.21,5.48,1.15,10.74,3.24,16.25,4.45,4,.89,7.88,2.6,11.8,4s8.07,3,12.15,4.27c4.78,1.53,9.38,3.5,14.07,5.24,4.42,1.64,8.7,3.62,13.22,5.08,3.38,1.09,6.48,3,9.86,4.67-4.5,3.74-9.25,6.75-13.71,10.13a171.11,171.11,0,0,0-15.89,14.22c-.93.91-2.28,1.41-3.17,2.35-2,2.07-3.78,4.28-5.6,6.49s-3.91,3.65-5.39,6.09-4,4.47-5.83,6.87a169.2,169.2,0,0,0-17.21,26.77c-.11.22.06.58.12,1h10.47c.76,4,1,50.94.36,65Zm74-64.9V160.22a9.52,9.52,0,0,1-2,.75c-.91.12-1.93-.21-2.76.07-4.3,1.45-8.85,1.73-13.18,2.89-2.09.56-4.25.73-6.34,1.38-5.37,1.65-10.94,2.66-16.4,4.08-3.34.87-6.68,1.84-10,2.61-4.79,1.11-9.25,3.36-14.18,3.86-1.24,1.43-4.05.21-4.66,2.94,6.68,9.3,12.9,19,17.61,29.48Zm195.16-.07h52c4.68-10.61,11.07-20.24,18.18-30.39a544.77,544.77,0,0,0-70.2-17.38ZM378.19,151.72c-4.74,0-9.07-.1-13.39,0s-8.63,1.27-13.06,1c-3.55-.25-7.2-.44-10.5,1.26v54.21h36.95Zm46.35,56.55V153.74a45,45,0,0,0-5.24-1.06c-5.27-.44-10.52.17-15.86-.77-5.07-.89-10.41-.19-15.72-.19v56.55ZM294.88,159.45v48.74c13.32.56,33.26.36,36.81-.32V154.65c-3.95-.54-7.62.26-11.34.74-3.87.49-7.78.66-11.67,1-.15,0-.38-.07-.45,0-1.82,1.83-4.32.09-6.06,1-2.06,1.1-4.11.56-6.13.91ZM434,208.19h37V159.53l-1.07-1.07c-4.36-.66-8.73-1.11-13.07-2-3.8-.78-7.76-.72-11.66-1-.61,0-1.37.22-1.83,0-3-1.7-6.17-.5-9.34-1ZM241.25,227c.53,2.17,1,4.13,1.5,6.07s1.3,4.1,1.82,6.19.29,4.31,1.31,5.92c1.27,2,.08,4.05,1,6.1s-.36,4.91.68,6.62c1.27,2.1-.09,4.25,1.06,6.07h36.65V227Zm276.06,37c.41-3.53.71-6.64,1.16-9.74a67.7,67.7,0,0,1,1.73-9.45c.85-2.9,1-6,1.94-8.93s1.67-5.9,2.49-8.84H480.55v37ZM294.88,227V263.9c14.21.54,33.21.36,36.81-.33V227Zm83.23,37V227.08c-11.55-.53-33.18-.35-36.83.27V264Zm46.41,0v-36.9c-13.5-.54-33.19-.35-36.81.31V264Zm9.6-37v36.9c13.35.54,33.19.35,36.81-.31V227Z"/>
<path d="M226.7,312.18c9-9.52,18.64-17.91,26.86-27.78h259l20.71,27.78Z"/></g></svg>