<?xml version="1.0" encoding="UTF-8"?>
<!DOCTYPE svg PUBLIC "-//W3C//DTD SVG 1.0//EN" "http://www.w3.org/TR/2001/REC-SVG-20010904/DTD/svg10.dtd">
<!-- Creator: CorelDRAW 2017 -->
<svg xmlns="http://www.w3.org/2000/svg" xml:space="preserve" width="42.3332mm" height="42.3332mm" version="1.0" style="shape-rendering:geometricPrecision; text-rendering:geometricPrecision; image-rendering:optimizeQuality; fill-rule:evenodd; clip-rule:evenodd"
viewBox="0 0 4233 4233"
 xmlns:xlink="http://www.w3.org/1999/xlink">
 <defs>
  <style type="text/css">
   <![CDATA[
    .fil0 {fill:#FEFEFE}
   ]]>
  </style>
 </defs>
 <g id="Layer_x0020_1">
  <metadata id="CorelCorpID_0Corel-Layer"/>
  <g id="_2216570472192">
   <path class="fil0" d="M2078 2223c-156,-475 733,-699 842,-75 95,542 -534,883 -899,797 -638,-151 -955,-908 -167,-1531 209,-165 529,-156 567,-286 -94,-117 -432,-143 -629,-69 -166,62 -372,240 -462,332 -239,246 -498,712 -270,1195 93,198 235,303 368,427 151,140 277,226 542,251 224,21 520,-13 694,-100 505,-253 905,-1105 347,-1546 -554,-437 -1475,86 -1305,782 114,467 950,404 847,-93 -19,-94 -106,-199 -190,-212 -145,-24 -169,105 -288,127z"/>
   <path class="fil0" d="M2297 831c62,50 262,120 369,115 45,-96 113,-476 105,-607 -135,32 -463,349 -473,492z"/>
   <path class="fil0" d="M3008 1155c29,73 248,302 344,324 95,-56 187,-296 193,-448 -132,-1 -447,53 -537,125z"/>
   <path class="fil0" d="M771 3463c98,4 383,-176 435,-239 -13,-90 -161,-298 -268,-317 -43,94 -212,431 -167,556z"/>
   <path class="fil0" d="M212 2555l243 95c221,77 306,94 281,-158 -7,-67 -13,-125 -18,-193 -111,7 -193,59 -279,104 -39,20 -79,41 -125,61 -82,36 -80,20 -103,90z"/>
   <path class="fil0" d="M1689 789c144,8 253,-62 350,-109 -31,-140 -134,-231 -214,-340 -54,-75 -17,-68 -108,-84 -31,119 -64,406 -28,533z"/>
   <path class="fil0" d="M1094 1246c93,-19 127,-76 181,-138 52,-60 110,-116 135,-209 -122,-48 -286,-87 -445,-89 16,144 43,355 128,437z"/>
   <path class="fil0" d="M644 1908c97,-30 96,-77 154,-150 53,-68 92,-94 110,-192l-423 -43c-89,0 -109,-17 -116,49l275 337z"/>
   <path class="fil0" d="M1725 3771c53,-120 61,-119 59,-262l-336 -122c-2,84 111,512 142,589 93,-30 90,-106 134,-206z"/>
   <path class="fil0" d="M2163 3516c3,3 61,84 69,95 133,167 138,240 272,248 28,-113 77,-319 41,-434 -110,-35 -310,34 -382,90z"/>
   <path class="fil0" d="M3420 2901c-14,90 -17,55 26,82 70,44 382,41 437,17 5,-82 -256,-340 -356,-367l-107 268z"/>
   <path class="fil0" d="M3094 3089c-107,46 -170,149 -172,296 26,23 326,224 414,170 9,-60 -67,-170 -98,-236 -36,-74 -87,-178 -143,-230z"/>
   <path class="fil0" d="M3658 2144c106,-15 337,-179 364,-267 -418,-181 -440,-211 -364,267z"/>
  </g>
 </g>
</svg>
